{
  "producer": [
    {
      "jfilepath": "Simulations/Eruption_test_custom_2020-05-06_11_22_08/Eruption_test_custom_2020-05-06_11_22_08.json",
      "download_folder": "/home/mpiuser/sfs/mgrund/uploads"
    }
  ]
}